12.3 Geometric interpretation | Introduction to Statistical Learning Using R Book Club
…
source: http://www.sthda.com/english/articles/31-principal-component-methods-in-r-practical-guide/112-pca-principal-component-analysis-essentials/

USArrests <- as_tibble(USArrests, rownames = "state")
USArrests

## # A tibble: 50 × 5
##    state       Murder Assault UrbanPop  Rape
##    <chr>        <dbl>   <int>    <int> <dbl>
##  1 Alabama       13.2     236       58  21.2
##  2 Alaska        10       263       48  44.5
##  3 Arizona        8.1     294       80  31  
##  4 Arkansas       8.8     190       50  19.5
##  5 California     9       276       91  40.6
##  6 Colorado       7.9     204       78  38.7
##  7 Connecticut    3.3     110       77  11.1
##  8 Delaware       5.9     238       72  15.8
##  9 Florida       15.4     335       80  31.9
## 10 Georgia       17.4     211       60  25.8
## # … with 40 more rows
## # ℹ Use `print(n = ...)` to see more rows
…
tidy(USArrests_pca, matrix = "scores")

## # A tibble: 200 × 3
##      row    PC  value
##    <int> <dbl>  <dbl>
##  1     1     1 -0.976
##  2     1     2  1.12 
##  3     1     3 -0.440
##  4     1     4  0.155
##  5     2     1 -1.93 
##  6     2     2  1.06 
##  7     2     3  2.02 
##  8     2     4 -0.434
##  9     3     1 -1.75 
## 10     3     2 -0.738
## # … with 190 more rows
## # ℹ Use `print(n = ...)` to see more rows
…
Representation of the scores

pca_rec <- recipe(~., data = USArrests) %>%
  step_normalize(all_numeric()) %>%
  step_pca(all_numeric(), id = "pca") %>%
  prep() %>%
  bake(new_data = NULL)

pca_rec

## # A tibble: 50 × 5
##    state           PC1     PC2     PC3      PC4
##    <fct>         <dbl>   <dbl>   <dbl>    <dbl>
##  1 Alabama     -0.976   1.12   -0.440   0.155  
##  2 Alaska      -1.93    1.06    2.02   -0.434  
##  3 Arizona     -1.75   -0.738   0.0542 -0.826  
##  4 Arkansas     0.140   1.11    0.113  -0.181  
##  5 California  -2.50   -1.53    0.593  -0.339  
##  6 Colorado    -1.50   -0.978   1.08    0.00145
##  7 Connecticut  1.34   -1.08   -0.637  -0.117  
##  8 Delaware    -0.0472 -0.322  -0.711  -0.873  
##  9 Florida     -2.98    0.0388 -0.571  -0.0953 
## 10 Georgia     -1.62    1.27   -0.339   1.07   
## # … with 40 more rows
## # ℹ Use `print(n = ...)` to see more rows
…
